{
    "joueur": {
        "carte": "route_1",
        "x": 21,
        "y": 37,
        "carte_sauve": "route_1",
        "x_sauve": 29,
        "y_sauve": 31,
        "argent": 63405,
        "pokemons": [
            {
                "id": 1,
                "nom": "Bulbizarre",
                "niveau": 31,
                "experience": 64,
                "types": [
                    "Plante",
                    "Poison"
                ],
                "PV_actuel": 36,
                "capacites": [
                    {
                        "id": 15,
                        "pp_actuel": 30
                    },
                    {
                        "id": 33,
                        "pp_actuel": 40
                    },
                    {
                        "id": 73,
                        "pp_actuel": 10
                    }
                ],
                "base_exp": 64,
                "statuts": []
            },
            {
                "id": 399,
                "nom": "Keunotor",
                "niveau": 1,
                "experience": 0,
                "types": [
                    "Normal"
                ],
                "PV_actuel": 12,
                "capacites": [
                    {
                        "id": 57,
                        "pp_actuel": 15
                    },
                    {
                        "id": 70,
                        "pp_actuel": 15
                    },
                    {
                        "id": 249,
                        "pp_actuel": 15
                    }
                ],
                "base_exp": 50,
                "statuts": []
            }
        ],
        "sac": {
            "CTs": [
                {
                    "identifiant": 2
                }
            ],
            "balls": [
                {
                    "identifiant": 1,
                    "nombre": 4
                }
            ]
        },
        "valeurs": {
            "carrefour_inazuma": {
                "rocher_trou": true,
                "mark_evans_001": true
            },
            "route_1": {
                "pierre_001": true,
                "poubelle": true,
                "terre": true
            }
        },
        "parametre": {
            "musique": {
                "allume": true,
                "volume": 0.30000000000000016
            }
        }
    },
    "version": "2.5.0"
}