{
    "version": 1,
    "carte": "maison_simple_1.tmx",
    "musique": "decouverte",
    "hitbox": [
        [
            {
                "type": "mur"
            },
            {
                "type": "mur"
            },
            {
                "type": "libre_mais",
                "gauche": false
            },
            {
                "type": "libre_mais",
                "gauche": false
            },
            {
                "type": "libre_mais",
                "gauche": false
            },
            {
                "type": "libre_mais",
                "gauche": false
            },
            {
                "type": "libre_mais",
                "gauche": false
            },
            {
                "type": "libre_mais",
                "gauche": false,
                "bas": false
            }
        ],
        [
            {
                "type": "mur"
            },
            {
                "type": "mur"
            },
            {
                "type": "libre"
            },
            {
                "type": "libre"
            },
            {
                "type": "libre"
            },
            {
                "type": "libre"
            },
            {
                "type": "libre"
            },
            {
                "type": "libre_mais",
                "bas": false
            }
        ],
        [
            {
                "type": "mur"
            },
            {
                "type": "mur"
            },
            {
                "type": "libre"
            },
            {
                "type": "libre"
            },
            {
                "type": "libre"
            },
            {
                "type": "libre"
            },
            {
                "type": "libre"
            },
            {
                "type": "libre_mais",
                "bas": false
            }
        ],
        [
            {
                "type": "mur"
            },
            {
                "type": "mur"
            },
            {
                "type": "libre"
            },
            {
                "type": "libre"
            },
            {
                "type": "libre"
            },
            {
                "type": "libre"
            },
            {
                "type": "libre"
            },
            {
                "type": "libre_mais",
                "bas": false
            }
        ],
        [
            {
                "type": "mur"
            },
            {
                "type": "mur"
            },
            {
                "type": "libre"
            },
            {
                "type": "libre"
            },
            {
                "type": "libre"
            },
            {
                "type": "libre"
            },
            {
                "type": "libre"
            },
            {
                "type": "libre_mais",
                "teleportation": {
                    "carte": "inazuma",
                    "vers_x": 18,
                    "vers_y": 16
                }
            }
        ],
        [
            {
                "type": "mur"
            },
            {
                "type": "mur"
            },
            {
                "type": "libre"
            },
            {
                "type": "libre"
            },
            {
                "type": "mur"
            },
            {
                "type": "mur"
            },
            {
                "type": "libre"
            },
            {
                "type": "libre_mais",
                "bas": false
            }
        ],
        [
            {
                "type": "mur"
            },
            {
                "type": "mur"
            },
            {
                "type": "libre"
            },
            {
                "type": "libre"
            },
            {
                "type": "mur"
            },
            {
                "type": "mur"
            },
            {
                "type": "libre"
            },
            {
                "type": "libre_mais",
                "bas": false
            }
        ],
        [
            {
                "type": "mur"
            },
            {
                "type": "mur"
            },
            {
                "type": "libre"
            },
            {
                "type": "libre"
            },
            {
                "type": "libre"
            },
            {
                "type": "libre"
            },
            {
                "type": "libre"
            },
            {
                "type": "libre_mais",
                "bas": false
            }
        ],
        [
            {
                "type": "mur"
            },
            {
                "type": "mur"
            },
            {
                "type": "libre"
            },
            {
                "type": "libre"
            },
            {
                "type": "libre"
            },
            {
                "type": "libre"
            },
            {
                "type": "libre"
            },
            {
                "type": "libre_mais",
                "bas": false
            }
        ],
        [
            {
                "type": "mur"
            },
            {
                "type": "mur"
            },
            {
                "type": "libre"
            },
            {
                "type": "libre"
            },
            {
                "type": "libre"
            },
            {
                "type": "libre"
            },
            {
                "type": "libre"
            },
            {
                "type": "libre_mais",
                "bas": false
            }
        ],
        [
            {
                "type": "mur"
            },
            {
                "type": "mur"
            },
            {
                "type": "libre"
            },
            {
                "type": "libre"
            },
            {
                "type": "libre"
            },
            {
                "type": "libre"
            },
            {
                "type": "libre"
            },
            {
                "type": "libre_mais",
                "bas": false
            }
        ],
        [
            {
                "type": "mur"
            },
            {
                "type": "mur"
            },
            {
                "type": "libre_mais",
                "droite": false
            },
            {
                "type": "libre_mais",
                "droite": false
            },
            {
                "type": "libre_mais",
                "droite": false
            },
            {
                "type": "libre_mais",
                "droite": false
            },
            {
                "type": "libre_mais",
                "droite": false
            },
            {
                "type": "libre_mais",
                "droite": false,
                "bas": false
            }
        ]
    ],
    "surimpression": [
        {
            "x": 0,
            "y": 4,
            "niveau": 8,
            "image": "coussin_jaune"
        },
        {
            "x": 0,
            "y": 6,
            "niveau": 8,
            "image": "plante_1_1"
        },
        {
            "x": 0,
            "y": 7,
            "niveau": 3,
            "image": "plante_1_2",
            "special_collision": {
                "type": "mur"
            }
        },
        {
            "x": 11,
            "y": 6,
            "niveau": 8,
            "image": "plante_1_1"
        },
        {
            "x": 11,
            "y": 7,
            "niveau": 3,
            "image": "plante_1_2",
            "special_collision": {
                "type": "mur"
            }
        },
        {
            "x": 11,
            "y": 1,
            "niveau": 8,
            "image": "plante_1_1"
        },
        {
            "x": 11,
            "y": 2,
            "niveau": 3,
            "image": "plante_1_2",
            "special_collision": {
                "type": "mur"
            }
        },
        {
            "x": 1,
            "y": 0,
            "niveau": 3,
            "image": "meuble_2_1"
        },
        {
            "x": 2,
            "y": 0,
            "niveau": 3,
            "image": "meuble_2_2"
        },
        {
            "x": 1,
            "y": 1,
            "niveau": 3,
            "image": "meuble_2_3"
        },
        {
            "x": 2,
            "y": 1,
            "niveau": 3,
            "image": "meuble_2_4"
        },
        {
            "x": 1,
            "y": 2,
            "niveau": 3,
            "image": "meuble_2_5"
        },
        {
            "x": 2,
            "y": 2,
            "niveau": 3,
            "image": "meuble_2_6"
        },
        {
            "x": 6,
            "y": 0,
            "niveau": 3,
            "image": "meuble_3_1"
        },
        {
            "x": 7,
            "y": 0,
            "niveau": 3,
            "image": "meuble_3_2"
        },
        {
            "x": 6,
            "y": 1,
            "niveau": 3,
            "image": "meuble_3_3"
        },
        {
            "x": 7,
            "y": 1,
            "niveau": 3,
            "image": "meuble_3_4"
        },
        {
            "x": 6,
            "y": 2,
            "niveau": 3,
            "image": "meuble_3_5"
        },
        {
            "x": 7,
            "y": 2,
            "niveau": 3,
            "image": "meuble_3_6"
        },
        {
            "x": 3,
            "y": 3,
            "niveau": 3,
            "image": "tapis_orange_1_1"
        },
        {
            "x": 4,
            "y": 3,
            "niveau": 3,
            "image": "tapis_orange_1_2"
        },
        {
            "x": 5,
            "y": 3,
            "niveau": 3,
            "image": "tapis_orange_1_2"
        },
        {
            "x": 5,
            "y": 4,
            "niveau": 4,
            "image": "table_1_1"
        },
        {
            "x": 6,
            "y": 3,
            "niveau": 3,
            "image": "tapis_orange_1_2"
        },
        {
            "x": 6,
            "y": 4,
            "niveau": 4,
            "image": "table_1_2"
        },
        {
            "x": 7,
            "y": 3,
            "niveau": 3,
            "image": "tapis_orange_1_2"
        },
        {
            "x": 8,
            "y": 3,
            "niveau": 3,
            "image": "tapis_orange_1_3"
        },
        {
            "x": 3,
            "y": 4,
            "niveau": 3,
            "image": "tapis_orange_1_4"
        },
        {
            "x": 4,
            "y": 4,
            "niveau": 3,
            "image": "tapis_orange_1_5"
        },
        {
            "x": 5,
            "y": 4,
            "niveau": 3,
            "image": "tapis_orange_1_5"
        },
        {
            "x": 5,
            "y": 5,
            "niveau": 4,
            "image": "table_1_3"
        },
        {
            "x": 6,
            "y": 4,
            "niveau": 3,
            "image": "tapis_orange_1_5"
        },
        {
            "x": 6,
            "y": 5,
            "niveau": 4,
            "image": "table_1_4"
        },
        {
            "x": 7,
            "y": 4,
            "niveau": 3,
            "image": "tapis_orange_1_5"
        },
        {
            "x": 7,
            "y": 5,
            "niveau": 4,
            "image": "chaise_rouge_1_g"
        },
        {
            "x": 8,
            "y": 4,
            "niveau": 3,
            "image": "tapis_orange_1_6"
        },
        {
            "x": 3,
            "y": 5,
            "niveau": 3,
            "image": "tapis_orange_1_4"
        },
        {
            "x": 4,
            "y": 5,
            "niveau": 3,
            "image": "tapis_orange_1_5"
        },
        {
            "x": 5,
            "y": 5,
            "niveau": 3,
            "image": "tapis_orange_1_5"
        },
        {
            "x": 6,
            "y": 5,
            "niveau": 3,
            "image": "tapis_orange_1_5"
        },
        {
            "x": 7,
            "y": 5,
            "niveau": 3,
            "image": "tapis_orange_1_5"
        },
        {
            "x": 8,
            "y": 5,
            "niveau": 3,
            "image": "tapis_orange_1_6"
        },
        {
            "x": 3,
            "y": 6,
            "niveau": 3,
            "image": "tapis_orange_1_7"
        },
        {
            "x": 4,
            "y": 6,
            "niveau": 3,
            "image": "tapis_orange_1_8"
        },
        {
            "x": 5,
            "y": 6,
            "niveau": 3,
            "image": "tapis_orange_1_8"
        },
        {
            "x": 6,
            "y": 6,
            "niveau": 3,
            "image": "tapis_orange_1_8"
        },
        {
            "x": 7,
            "y": 6,
            "niveau": 3,
            "image": "tapis_orange_1_8"
        },
        {
            "x": 8,
            "y": 6,
            "niveau": 3,
            "image": "tapis_orange_1_9"
        },
        {
            "x": 9,
            "y": 0,
            "niveau": 3,
            "image": "fenetre_1_1"
        },
        {
            "x": 9,
            "y": 1,
            "niveau": 3,
            "image": "fenetre_1_2"
        }
    ]
}